>>> Warning 208 "main_ECG_simulator.c" Line 46(6,13): Function not void and does not return a value  DAC_out
>>> Warning 202 "main_ECG_simulator.c" Line 23(6,16): Variable never used:   flag_1_sec
>>> Warning 202 "main_ECG_simulator.c" Line 30(28,40): Variable never used:   button_state
>>> Warning 202 "main_ECG_simulator.c" Line 59(23,36): Variable never used:   counter_5_sec
>>> Warning 202 "main_ECG_simulator.c" Line 59(37,51): Variable never used:   counter_10_sec
>>> Warning 202 "main_ECG_simulator.c" Line 59(52,66): Variable never used:   counter_20_sec
>>> Warning 202 "main_ECG_simulator.c" Line 366(13,24): Variable never used:   DAC_counter
      Memory usage:   ROM=6%      RAM=75% - 75%
      0 Errors,  7 Warnings.
Build Successful.
